9 Mixed Models - ANOVA | Statistical Analysis of Agricultural Experiments using R
…
library(lme4)
read.csv("http://rstats4ag.org/data/FlumiBeans.csv")->flum.dat
flum.dat$yrblock  <- with(flum.dat, factor(year):factor(block))

First, we can look at group means (in plants per acre, and plants per hectare) using the dplyr package.

library(dplyr)
beansum <- flum.dat %>%
  group_by(year, treatment) %>%
  summarize( Pop.plantsA  = round(mean(population.4wk),-2),
             Pop.plantsHa = round(mean(population.4wk*2.47),-2))
beansum

## # A tibble: 21 x 4
## # Groups:   year [3]
##     year treatment                   Pop.plantsA Pop.plantsHa
##    <int> <chr>                             <dbl>        <dbl>
##  1  2009 EPTC + ethafluralin               48800       120500
##  2  2009 flumioxazin + ethafluralin        38300        94700
##  3  2009 flumioxazin + pendimethalin       19700        48800
##  4  2009 flumioxazin + trifluralin         24400        60300
##  5  2009 Handweeded                        34800        86100
##  6  2009 imazamox + bentazon               49900       123400
##  7  2009 Nontreated                        46500       114800
##  8  2010 EPTC + ethafluralin               56600       139900
##  9  2010 flumioxazin + ethafluralin        15700        38700
## 10  2010 flumioxazin + pendimethalin       20000        49500
## # … with 11 more rows
…
